<svg width="1.3em" height="1.3em" viewBox="0 0 16 16" class="bi bi-play-fill" fill="white"
                    xmlns="http://www.w3.org/2000/svg">
                    <path
                      d="M11.596 8.697l-6.363 3.692c-.54.313-1.233-.066-1.233-.697V4.308c0-.63.692-1.01 1.233-.696l6.363 3.692a.802.802 0 0 1 0 1.393z" />
                  </svg>